Linear Models - Lesson 7: SLR: Model Evaluation and Diagnostics
…
We flag an observation if the leverage is “high”

Different sources will define “high” differently

Some textbooks use \(h_i > 4/n\) where \(n\) = sample size

Some people suggest \(h_i > 6/n\)

PennState site uses \(h_i > 3p/n\) where \(p\) = number of regression coefficients

aug1 = aug1 %>% relocate(.hat, .after = female_literacy_rate_2011)
aug1 %>% arrange(desc(.hat))

# A tibble: 80 × 10
   .rownames country        life_expectancy_year…¹ female_literacy_rate…²   .hat
   <chr>     <chr>                           <dbl>                  <dbl>  <dbl>
 1 1         Afghanistan                      56.7                   13   0.136 
 2 104       Mali                             60                     24.6 0.0980
 3 34        Chad                             57                     25.4 0.0956
 4 146       Sierra Leone                     55.7                   32.6 0.0757
 5 62        Gambia                           66                     41.9 0.0540
 6 70        Guinea-Bissau                    56.2                   42.1 0.0536
 7 33        Central Afric…                   48                     44.2 0.0493
 8 118       Nepal                            68.7                   46.7 0.0446
 9 42        Cote d'Ivoire                    56.9                   47.6 0.0430
10 169       Togo                             59.6                   48   0.0422
# ℹ 70 more rows
# ℹ abbreviated names: ¹​life_expectancy_years_2011, ²​female_literacy_rate_2011
# ℹ 5 more variables: .std.resid <dbl>, .fitted <dbl>, .resid <dbl>,
#   .sigma <dbl>, .cooksd <dbl>
…
The Cook’s distance for the \(i^{th}\) observation is

\[d_i = \frac{h_i}{2(1-h_i)} \cdot r_i^2\] where \(h_i\) is the leverage and \(r_i\) is the studentized residual

Another rule for Cook’s distance that is not strict:

Investigate observations that have \(d_i > 1\)

Cook’s distance values are already in the augment tibble: .cooksd

aug1 = aug1 %>% relocate(.cooksd, .after = female_literacy_rate_2011)
aug1 %>% arrange(desc(.cooksd))

# A tibble: 80 × 10
   .rownames country       life_expectancy_year…¹ female_literacy_rate…² .cooksd
   <chr>     <chr>                          <dbl>                  <dbl>   <dbl>
 1 33        Central Afri…                   48                     44.2  0.126 
 2 161       Swaziland                       48.9                   87.3  0.0903
 3 152       South Africa                    55.8                   92.2  0.0577
 4 187       Zimbabwe                        51.9                   80.1  0.0531
 5 114       Morocco                         73.8                   57.6  0.0350
 6 118       Nepal                           68.7                   46.7  0.0311
 7 14        Bangladesh                      71                     53.4  0.0280
 8 23        Botswana                        58.9                   85.6  0.0249
 9 54        Equatorial G…                   61.4                   91.1  0.0231
10 62        Gambia                          66                     41.9  0.0228
# ℹ 70 more rows
# ℹ abbreviated names: ¹​life_expectancy_years_2011, ²​female_literacy_rate_2011
# ℹ 5 more variables: .hat <dbl>, .std.resid <dbl>, .fitted <dbl>,
#   .resid <dbl>, .sigma <dbl>
…
